<?xml version="1.0" encoding="UTF-8" standalone="no"?>
<!-- Created with Inkscape (http://www.inkscape.org/) -->

<svg
   xmlns:dc="http://purl.org/dc/elements/1.1/"
   xmlns:cc="http://creativecommons.org/ns#"
   xmlns:rdf="http://www.w3.org/1999/02/22-rdf-syntax-ns#"
   xmlns:svg="http://www.w3.org/2000/svg"
   xmlns="http://www.w3.org/2000/svg"
   xmlns:sodipodi="http://sodipodi.sourceforge.net/DTD/sodipodi-0.dtd"
   xmlns:inkscape="http://www.inkscape.org/namespaces/inkscape"
   id="svg2"
   version="1.1"
   inkscape:version="0.91 r13725"
   xml:space="preserve"
   width="211.82013"
   height="193.14909"
   viewBox="0 0 211.82013 193.1491"
   sodipodi:docname="eTlogo_simple.svg"><metadata
     id="metadata8"><rdf:RDF><cc:Work
         rdf:about=""><dc:format>image/svg+xml</dc:format><dc:type
           rdf:resource="http://purl.org/dc/dcmitype/StillImage" /><dc:title></dc:title></cc:Work></rdf:RDF></metadata><defs
     id="defs6" /><sodipodi:namedview
     pagecolor="#ffffff"
     bordercolor="#666666"
     borderopacity="1"
     objecttolerance="10"
     gridtolerance="10"
     guidetolerance="10"
     inkscape:pageopacity="0"
     inkscape:pageshadow="2"
     inkscape:window-width="1516"
     inkscape:window-height="941"
     id="namedview4"
     showgrid="false"
     fit-margin-top="0"
     fit-margin-left="0"
     fit-margin-right="0"
     fit-margin-bottom="0"
     inkscape:zoom="1.5089515"
     inkscape:cx="-21.492763"
     inkscape:cy="189.70291"
     inkscape:window-x="0"
     inkscape:window-y="0"
     inkscape:window-maximized="0"
     inkscape:current-layer="g10" /><g
     id="g10"
     inkscape:groupmode="layer"
     inkscape:label="ink_ext_XXXXXX"
     transform="matrix(1.25,0,0,-1.25,241.66379,283.07171)"><g
       id="g4141"
       transform="matrix(2.5115079,0,0,2.5115079,252.20248,-226.57499)"><g
         style="fill:#1e6432;fill-opacity:1"
         id="g1200"
         transform="translate(-203.58507,92.817622)"><text
           transform="matrix(1,0,0,-1,59.3105,57.9605)"
           style="font-style:italic;font-variant:normal;font-size:43px;font-family:Baskerville;-inkscape-font-specification:Baskerville-Italic;writing-mode:lr-tb;fill:#1e6432;fill-opacity:1;fill-rule:nonzero;stroke:none"
           id="text1202"><tspan
             style="fill:#1e6432;fill-opacity:1"
             x="0"
             y="0"
             id="tspan1204">T</tspan></text>
</g><g
         id="g1206"
         transform="translate(-198.78507,78.417622)"><text
           transform="matrix(1,0,0,-1,18.232,41.6734)"
           style="font-style:italic;font-variant:normal;font-size:101px;font-family:Times;-inkscape-font-specification:Times-Italic;writing-mode:lr-tb;fill:#3b3838;fill-opacity:1;fill-rule:nonzero;stroke:none"
           id="text1208"><tspan
             x="0"
             y="0"
             id="tspan1210">e</tspan></text>
</g></g><ellipse
       style="opacity:1;fill:none;fill-opacity:1;stroke:none;stroke-width:1.60000002;stroke-miterlimit:4;stroke-dasharray:none;stroke-dashoffset:0;stroke-opacity:1"
       id="path5348"
       cx="-141.63885"
       cy="-147.53473"
       transform="scale(1,-1)"
       rx="43.208809"
       ry="39.23254" /></g></svg>